%YAML 1.1
%TAG !u! tag:unity3d.com,2011:
--- !u!162 &1
EditorUserSettings:
  m_ObjectHideFlags: 0
  serializedVersion: 4
  m_ConfigSettings:
    RecentlyUsedScenePath-0:
      value: 224247031146466f081c1e23192d6b150e030d38293b16312e223b21e7e57b1ce7ea39dae43f31397626ea310b701431fb1e10
      flags: 0
    RecentlyUsedScenePath-1:
      value: 22424703114646570c16093050024c0313030b65182d34222c201373d1e8353ce7f579fde2282d3d300caf2f0c3f053ae0441c05ff1f13
      flags: 0
    RecentlyUsedScenePath-2:
      value: 22424703114646680e0b0227036c6c1313191d151b2932353f67083debf42d
      flags: 0
    RecentlyUsedScenePath-3:
      value: 22424703114646680e0b0227036c6c111b07142f1f2b233e2867083debf42d
      flags: 0
    RecentlyUsedScenePath-4:
      value: 22424703114646680e0b0227036c6c1313191d150a2734353e3d5326ece92021
      flags: 0
    RecentlyUsedScenePath-5:
      value: 22424703114646680e0b0227036c6c1313191d151e27253b633c133af6f9
      flags: 0
    RecentlyUsedScenePath-6:
      value: 22424703114646680e0b0227036c69051a1c1924291715332827187df7ee3d2cfb
      flags: 0
    vcSharedLogLevel:
      value: 0d5e400f0650
      flags: 0
  m_VCAutomaticAdd: 1
  m_VCDebugCom: 0
  m_VCDebugCmd: 0
  m_VCDebugOut: 0
  m_SemanticMergeMode: 2
  m_VCShowFailedCheckout: 1
  m_VCOverwriteFailedCheckoutAssets: 1
  m_VCProjectOverlayIcons: 1
  m_VCHierarchyOverlayIcons: 1
  m_VCOtherOverlayIcons: 1
  m_VCAllowAsyncUpdate: 1
